<font>
	<info size='246' smooth='1' stretchH='100' bold='0' padding='0,0,0,0' spacing='0,0' charset='' italic='0' unicode='0' face='coin_feature_total'/>
       <common scaleW='755' packed='0' pages='1' lineHeight='250' scaleH='750' base='246'/>
	<pages>
		<page id="0" file="coin_feature_total.png"/>
	</pages>

	<chars count="13">
		<char id="120" x="2" y="2" width="211" height="246" xoffset="0" yoffset="-6" xadvance="211" page="0" chnl="0" letter="x"/>
		<char id="48" x="217" y="2" width="210" height="246" xoffset="0" yoffset="0" xadvance="210" page="0" chnl="0" letter="0"/>
		<char id="54" x="2" y="252" width="173" height="246" xoffset="0" yoffset="0" xadvance="173" page="0" chnl="0" letter="6"/>
		<char id="43" x="179" y="252" width="172" height="246" xoffset="0" yoffset="0" xadvance="173" page="0" chnl="0" letter="+"/>
		<char id="52" x="355" y="252" width="170" height="246" xoffset="0" yoffset="0" xadvance="173" page="0" chnl="0" letter="4"/>
		<char id="57" x="431" y="2" width="170" height="246" xoffset="0" yoffset="2" xadvance="173" page="0" chnl="0" letter="9"/>
		<char id="50" x="2" y="502" width="168" height="246" xoffset="0" yoffset="0" xadvance="173" page="0" chnl="0" letter="2"/>
		<char id="53" x="174" y="502" width="168" height="246" xoffset="0" yoffset="5" xadvance="173" page="0" chnl="0" letter="5"/>
		<char id="51" x="346" y="502" width="167" height="246" xoffset="0" yoffset="0" xadvance="173" page="0" chnl="0" letter="3"/>
		<char id="56" x="517" y="502" width="162" height="246" xoffset="0" yoffset="0" xadvance="173" page="0" chnl="0" letter="8"/>
		<char id="55" x="529" y="252" width="143" height="246" xoffset="0" yoffset="0" xadvance="173" page="0" chnl="0" letter="7"/>
		<char id="49" x="605" y="2" width="120" height="246" xoffset="0" yoffset="0" xadvance="120" page="0" chnl="0" letter="1"/>
		<char id="99" x="683" y="252" width="70" height="306" xoffset="0" yoffset="0" xadvance="70" page="0" chnl="0" letter="comma"/>
    </chars>
</font> 