<font>
	<info size='404' smooth='1' stretchH='100' bold='0' padding='0,0,0,0' spacing='0,0' charset='' italic='0' unicode='0' face='intro_outro'/>
       <common scaleW='1792' packed='0' pages='1' lineHeight='405' scaleH='1632' base='404'/>
	<pages>
		<page id="0" file="intro_outro.png"/>
	</pages>

	<chars count="31">
		<char id="70" x="2" y="2" width="252" height="404" xoffset="0" yoffset="0" xadvance="252" page="0" chnl="0" letter="F"/>
		<char id="36" x="258" y="2" width="252" height="404" xoffset="0" yoffset="0" xadvance="252" page="0" chnl="0" letter="$"/>
		<char id="45" x="2" y="410" width="252" height="404" xoffset="0" yoffset="0" xadvance="252" page="0" chnl="0" letter="-"/>
		<char id="48" x="258" y="410" width="252" height="404" xoffset="0" yoffset="0" xadvance="252" page="0" chnl="0" letter="0"/>
		<char id="49" x="514" y="2" width="252" height="404" xoffset="0" yoffset="0" xadvance="252" page="0" chnl="0" letter="1"/>
		<char id="50" x="514" y="410" width="252" height="404" xoffset="0" yoffset="0" xadvance="252" page="0" chnl="0" letter="2"/>
		<char id="51" x="770" y="2" width="252" height="404" xoffset="0" yoffset="0" xadvance="252" page="0" chnl="0" letter="3"/>
		<char id="52" x="770" y="410" width="252" height="404" xoffset="0" yoffset="0" xadvance="252" page="0" chnl="0" letter="4"/>
		<char id="53" x="2" y="818" width="252" height="404" xoffset="0" yoffset="0" xadvance="252" page="0" chnl="0" letter="5"/>
		<char id="54" x="258" y="818" width="252" height="404" xoffset="0" yoffset="0" xadvance="252" page="0" chnl="0" letter="6"/>
		<char id="55" x="514" y="818" width="252" height="404" xoffset="0" yoffset="0" xadvance="252" page="0" chnl="0" letter="7"/>
		<char id="56" x="770" y="818" width="252" height="404" xoffset="0" yoffset="0" xadvance="252" page="0" chnl="0" letter="8"/>
		<char id="57" x="1026" y="2" width="252" height="404" xoffset="0" yoffset="0" xadvance="252" page="0" chnl="0" letter="9"/>
		<char id="67" x="1026" y="410" width="252" height="404" xoffset="0" yoffset="0" xadvance="252" page="0" chnl="0" letter="C"/>
		<char id="99" x="1026" y="410" width="252" height="404" xoffset="0" yoffset="0" xadvance="252" page="0" chnl="0" letter="C"/>
		<char id="43" x="1026" y="818" width="252" height="404" xoffset="0" yoffset="0" xadvance="252" page="0" chnl="0" letter="+"/>
		<char id="75" x="2" y="1226" width="252" height="404" xoffset="0" yoffset="0" xadvance="252" page="0" chnl="0" letter="K"/>
		<char id="82" x="258" y="1226" width="252" height="404" xoffset="0" yoffset="0" xadvance="252" page="0" chnl="0" letter="R"/>
		<char id="44" x="514" y="1226" width="116" height="404" xoffset="0" yoffset="0" xadvance="116" page="0" chnl="0" letter=","/>
		<char id="46" x="634" y="1226" width="107" height="404" xoffset="0" yoffset="0" xadvance="107" page="0" chnl="0" letter="."/>
		<char id="101" x="745" y="1226" width="252" height="404" xoffset="0" yoffset="0" xadvance="252" page="0" chnl="0" letter="e"/>
		<char id="104" x="1001" y="1226" width="252" height="404" xoffset="0" yoffset="0" xadvance="252" page="0" chnl="0" letter="h"/>
		<char id="72" x="1001" y="1226" width="252" height="404" xoffset="0" yoffset="0" xadvance="252" page="0" chnl="0" letter="H"/>
		<char id="105" x="1257" y="1226" width="252" height="404" xoffset="0" yoffset="0" xadvance="252" page="0" chnl="0" letter="i"/>
		<char id="108" x="1282" y="2" width="252" height="404" xoffset="0" yoffset="0" xadvance="252" page="0" chnl="0" letter="l"/>
		<char id="110" x="1282" y="410" width="252" height="404" xoffset="0" yoffset="0" xadvance="252" page="0" chnl="0" letter="n"/>
		<char id="111" x="1282" y="818" width="252" height="404" xoffset="0" yoffset="0" xadvance="252" page="0" chnl="0" letter="o"/>
		<char id="116" x="1513" y="1226" width="252" height="404" xoffset="0" yoffset="0" xadvance="252" page="0" chnl="0" letter="t"/>
		<char id="120" x="1538" y="2" width="252" height="404" xoffset="0" yoffset="0" xadvance="252" page="0" chnl="0" letter="x"/>
		<char id="163" x="1538" y="410" width="252" height="404" xoffset="0" yoffset="0" xadvance="252" page="0" chnl="0" letter="£"/>
		<char id="8364" x="1538" y="818" width="252" height="404" xoffset="0" yoffset="0" xadvance="252" page="0" chnl="0" letter="€"/>
    </chars>
</font> 